Advising Pool,Topic
Student Admin Team,DBS
Student Discipline Team,Student Disciplinary
Digital Skills Trainers,Digital Skills support
Information Skills Librarians,Finding and using resources support
Information Skills Librarians,Postgraduate research student support
Information Skills Librarians,Referencing support
Student IT Support Advisors,Assistive technology support
Student IT Support Advisors,Software support
Student IT Support Advisors,Software support