Case Topic,Contact Role,Nature of Enquiry,Skill Name
"My Application","Student","Student General Enquiry","Admissions"
"Courses Enquiries","Applicant","Offer Holder General Enquiry","Course Enquiries"
"Open Days and Events","Prospect","Prospect General Enquiry","Course Enquiries"
"How to Apply","Prospect","Prospect General Enquiry","Course Enquiries"
"Wellbeing Services","Student","Student General Enquiry","Student Life Centre"
"Wellbeing Services","Prospect","Prospect General Enquiry","Course Enquiries"
"Disability Services","Applicant","Offer Holder General Enquiry","Student Life Centre"
"Accommodation","Student","Student General Enquiry","Accommodation"
"Certificates, Exams & Results (Includes transcripts)","Student","Student General Enquiry","Student Life Centre"
"I have been advised to contact you","Applicant","Mental Health and Wellbeing","Student Life Centre"
"Learning Support","Prospect","Prospect General Enquiry","Course Enquiries"
"Technical Support","Student","Student General Enquiry","Library and Learning Resources"
"Learning Support","Student","Student General Enquiry","Student Life Centre"
"Student Enterprise","Student","Student General Enquiry","Student Life Centre"
"Staff","Student","Complaint","Student Life Centre"
"I have been advised to contact you","Student","Mental Health and Wellbeing","Student Life Centre"
"Other Student Services","Student","Mental Health and Wellbeing","Student Life Centre"
"Equality/discrimination","Student","Complaint","Student Life Centre"
"Register with Disability & Dyslexia Support team","Student","Disability","Student Life Centre"
"Review my support arrangements","Student","Disability","Student Life Centre"
"My Course & Modules","Student","Student General Enquiry","Student Life Centre"
"Timetable","Student","Student General Enquiry","Student Life Centre"
"Support available to me","Student","Disability","Student Life Centre"
"Other Student Services","Applicant","Disability","Student Life Centre"
"Learning Support","Applicant","Offer Holder General Enquiry","Course Enquiries"
"Money, Fees and Funding","Student","Student General Enquiry","Student Life Centre"
"Support available to me","Applicant","Disability","Student Life Centre"
"Technical Support","Applicant","Offer Holder General Enquiry","Library and Learning Resources"
"Other Student Services","Applicant","Mental Health and Wellbeing","Student Life Centre"
"Immigration and Visas","Student","Student General Enquiry","Student Life Centre"
"Issues with my experience","Student","Complaint","Student Life Centre"
"Support for mental health/ wellbeing​","Applicant","Mental Health and Wellbeing","Student Life Centre"
"Financial","Student","Complaint","Student Life Centre"
"Other Student Services","Student","Disability","Student Life Centre"
"Employability, Work and CVs","Student","Student General Enquiry","Student Life Centre"
"General Student Information","Student","Student General Enquiry","Student Life Centre"
"Other Student Services","Student","Complaint","Student Life Centre"
"Support for mental health/ wellbeing​","Student","Mental Health and Wellbeing","Student Life Centre"
"Issues with my course","Student","Complaint","Student Life Centre"
"Money, Fees and Funding","Applicant","Offer Holder General Enquiry","Student Life Centre"
"Accommodation","Prospect","Prospect General Enquiry","Accommodation"
"Bullying/Harassment","Student","Complaint","Student Life Centre"
"Academic stress","Student","Mental Health and Wellbeing","Student Life Centre"
"Register with Disability & Dyslexia Support team","Applicant","Disability","Student Life Centre"
"Review my support arrangements","Applicant","Disability","Student Life Centre"
"Accommodation","Applicant","Offer Holder General Enquiry","Accommodation"
"Interviews","Applicant","Offer Holder General Enquiry","Admissions"
"My Application","Prospect","Prospect General Enquiry","Admissions"
"Enrolment","Student","Student General Enquiry","Enrolment"
"Wellbeing Services","Applicant","Offer Holder General Enquiry","Student Life Centre"
"Interviews","Prospect","Prospect General Enquiry","Admissions"
"Induction","Student","Student General Enquiry","Student Life Centre"
"Enrolment","Applicant","Offer Holder General Enquiry","Enrolment"
"Courses Enquiries","Prospect","Prospect General Enquiry","Course Enquiries"
"Open Days and Events","Applicant","Offer Holder General Enquiry","Course Enquiries"
"Entry requirements","Prospect","Prospect General Enquiry","Course Enquiries"
"Induction","Applicant","Offer Holder General Enquiry","Student Life Centre"
"Disability Services","Student","Student General Enquiry","Student Life Centre"
"Disability Services","Prospect","Prospect General Enquiry","Course Enquiries"
"Bullying/Harassment","Student","Complaint","Student Life Centre Team"
"Interviews","Student","Student General Enquiry","Admissions"
"My Application","Applicant","Offer Holder General Enquiry","Admissions"
